Mon May 16 23:12:19 IDT 2022

SLURM_JOBID:		 3591477
SLURM_JOB_NODELIST:	 cs-cpu-19 

RESULTS_DIR_PATH:	 /home/liadd/research/mabat/experiments/results 

CONFIG_FILE:	 /home/liadd/research/mabat/experiments/configs/fp-fn-thompson-mshared-with.json
NPROC:	 20 


Traceback (most recent call last):
  File "/home/liadd/research/mabat/src/runner.py", line 11, in <module>
    from orders import *
  File "/home/liadd/research/mabat/src/orders/__init__.py", line 13, in <module>
    from .thompson_sampling_random_order import ThompsonSamplingRandomOrder
  File "/home/liadd/research/mabat/src/orders/thompson_sampling_random_order.py", line 1, in <module>
    import ipdb
ModuleNotFoundError: No module named 'ipdb'
