{
    "orders": {
        "UCB1MultiMostSharedOrder": {},
        "UCB1MostSharedOrder": {},
        "UCB1RandomOrder": {},
        "UCB1MultiRandomOrder": {}
    },
    "run_params": {
        "host_env_file": "otx-xforce-vt-v22-fixed.p",
        "attack_iterations": 2,
        "budgets": [
            20000
        ],
        "rewards": [
            1280
        ],
        "thresholds": [
            1.0
        ],
        "fp": [
            0.01
        ],
        "fn": [
            0.1
        ],
        "niocs_lower_bound": 0,
        "niocs_upper_bound": 50000,
        "create_fp_fn_results": false,
        "create_attacks_results": true,
        "create_rank_results": false,
        "create_budget_results": false,
        "run_type": "thresholds",
        "load_pickle_env": true,
        "normalize_results": false,
        "remove_occuring_attack": false,
        "early_occuring_attack_stop": true
    },
    "attacks": {},
    "credentials": {
        "host": "localhost",
        "port": 11004,
        "user": "neo4j",
        "password": "q1w2e3"
    }
}